<?xml version="1.0" encoding="utf-8"?>
<!-- Generator: Adobe Illustrator 17.0.0, SVG Export Plug-In . SVG Version: 6.00 Build 0)  -->
<!DOCTYPE svg PUBLIC "-//W3C//DTD SVG 1.1//EN" "http://www.w3.org/Graphics/SVG/1.1/DTD/svg11.dtd">
<svg version="1.1" id="Layer_1" xmlns="http://www.w3.org/2000/svg" xmlns:xlink="http://www.w3.org/1999/xlink" x="0px" y="0px"
	 width="27px" height="27px" viewBox="63.897 63.585 27 27" enable-background="new 63.897 63.585 27 27" xml:space="preserve">
<path fill="#FFFFFF" d="M83.683,80.039c1.055-1.659,1.673-3.628,1.673-5.745c0-5.913-4.788-10.709-10.695-10.709
	c-5.913,0-10.702,4.795-10.702,10.709c0,5.913,4.788,10.709,10.695,10.709c2.145,0,4.141-0.633,5.815-1.716l0.485-0.338l7.636,7.636
	l2.37-2.412l-7.629-7.636L83.683,80.039z M80.653,68.31c1.596,1.596,2.475,3.72,2.475,5.977c0,2.257-0.879,4.38-2.475,5.977
	c-1.596,1.596-3.72,2.475-5.977,2.475c-2.257,0-4.38-0.879-5.977-2.475c-1.596-1.596-2.475-3.72-2.475-5.977
	c0-2.257,0.879-4.38,2.475-5.977s3.72-2.475,5.977-2.475C76.933,65.835,79.057,66.714,80.653,68.31z"/>
</svg>
