<?xml version="1.0" encoding="utf-8"?>
<!-- Generator: Adobe Illustrator 17.1.0, SVG Export Plug-In . SVG Version: 6.00 Build 0)  -->
<!DOCTYPE svg PUBLIC "-//W3C//DTD SVG 1.1//EN" "http://www.w3.org/Graphics/SVG/1.1/DTD/svg11.dtd">
<svg version="1.1" id="Layer_1" xmlns="http://www.w3.org/2000/svg" xmlns:xlink="http://www.w3.org/1999/xlink" x="0px" y="0px"
	 width="10px" height="10px" viewBox="251 251 10 10" enable-background="new 251 251 10 10" xml:space="preserve">
<polygon fill="#FFFFFF" points="252,253 251,254 256,259 256,259 256,259 261,254 260,253 256,257 "/>
<rect x="251" y="251" fill="none" width="10" height="10"/>
</svg>
