<svg xmlns="http://www.w3.org/2000/svg" width="95" height="95" viewBox="0 0 95 95">
  <g id="ico-play" transform="translate(-421.333 125.667)">
    <g id="ico-play-2" data-name="ico-play" transform="translate(421.333 -125.667)">
      <path id="Path_2" data-name="Path 2" d="M40,70.875,68.5,49.5,40,28.125ZM49.5,2A47.5,47.5,0,1,0,97,49.5,47.517,47.517,0,0,0,49.5,2Zm0,85.5a38,38,0,1,1,38-38A38.05,38.05,0,0,1,49.5,87.5Z" transform="translate(-2 -2)" fill="#fff"/>
    </g>
  </g>
</svg>
